Class;Land cover;Edge density;Overall Core area;Patch cohesion index;Number of Patches;Landscape division;Patch density
112.0;1560000.0;0.00019603920784156832;210000.0;8.349426144764974;6;0.9999356942802844;6.001200240048009e-08
121.0;80000.0;2.000400080016003e-05;0.0;4.9504950495049505;2;0.9999996798719616;2.000400080016003e-08
122.0;10000.0;4.0008001600320064e-06;0.0;nan;1;0.9999999899959988;1.0002000400080016e-08
131.0;40000.0;1.0002000400080016e-05;0.0;4.9504950495049505;1;0.9999998399359808;1.0002000400080016e-08
211.0;14590000.0;0.0010242048409681937;6070000.0;9.530880627721826;13;0.9885001305121996;1.3002600520104022e-07
221.0;40000.0;8.001600320064013e-06;0.0;4.9504950495049505;1;0.9999998399359808;1.0002000400080016e-08
222.0;18480000.0;0.0008141628325665133;11540000.0;9.659537853167638;10;0.9688601453037157;1.0002000400080016e-07
223.0;6430000.0;0.00035007001400280056;3450000.0;9.452963134813952;7;0.9967834835220695;7.001400280056012e-08
231.0;780000.0;0.00011002200440088017;50000.0;7.694280074487569;4;0.9999839735900771;4.000800160032006e-08
232.0;50000.0;1.0002000400080016e-05;0.0;5.4731327178222;1;0.99999974989997;1.0002000400080016e-08
242.0;13310000.0;0.0010922184436887377;4720000.0;9.155376970481408;15;0.9975348440362207;1.5003000600120024e-07
243.0;7140000.0;0.0007661532306461293;1630000.0;8.98161907109594;22;0.9990482193258016;2.2004400880176034e-07
311.0;27760000.0;0.0025825165033006602;8550000.0;9.363854612285827;37;0.9901657066760422;3.700740148029606e-07
322.0;420000.0;3.000600120024005e-05;160000.0;8.373234158791169;1;0.9999823529418826;1.0002000400080016e-08
324.0;9290000.0;0.0010022004400880176;1890000.0;8.905668414556128;25;0.9990195178463578;2.500500100020004e-07
